%YAML 1.1
%TAG !u! tag:unity3d.com,2011:
--- !u!114 &11400000
MonoBehaviour:
  m_ObjectHideFlags: 0
  m_CorrespondingSourceObject: {fileID: 0}
  m_PrefabInstance: {fileID: 0}
  m_PrefabAsset: {fileID: 0}
  m_GameObject: {fileID: 0}
  m_Enabled: 1
  m_EditorHideFlags: 0
  m_Script: {fileID: 11500000, guid: e9594bfd1a6e5c144a7b3cd550101403, type: 3}
  m_Name: ResolutionMonitor
  m_EditorClassIdentifier: 
  optimizedResolutionFallback: {x: 1294, y: 2778}
  optimizedDpiFallback: 96
  fallbackName: Portrait
  staticSizerMethods:
  - assemblyName: Assembly-CSharp
    typeName: 
    methodName: 
  - assemblyName: Assembly-CSharp
    typeName: 
    methodName: 
  - assemblyName: Assembly-CSharp
    typeName: 
    methodName: 
  - assemblyName: Assembly-CSharp
    typeName: 
    methodName: 
  - assemblyName: Assembly-CSharp
    typeName: 
    methodName: 
  dpiManager:
    overrides: []
  optimizedScreens: []
