%YAML 1.1
%TAG !u! tag:unity3d.com,2011:
--- !u!114 &11400000
MonoBehaviour:
  m_ObjectHideFlags: 0
  m_CorrespondingSourceObject: {fileID: 0}
  m_PrefabInstance: {fileID: 0}
  m_PrefabAsset: {fileID: 0}
  m_GameObject: {fileID: 0}
  m_Enabled: 1
  m_EditorHideFlags: 0
  m_Script: {fileID: 11500000, guid: 782f9b5fca48843449ab21172dd3d9e8, type: 3}
  m_Name: Level 6
  m_EditorClassIdentifier: 
  SpawnInterval: 4
  _enemySpeed: 4.5
  _loseMoney: 80
  _winMoney: 500
