%YAML 1.1
%TAG !u! tag:unity3d.com,2011:
--- !u!1 &1594552866964663972
GameObject:
  m_ObjectHideFlags: 0
  m_CorrespondingSourceObject: {fileID: 0}
  m_PrefabInstance: {fileID: 0}
  m_PrefabAsset: {fileID: 0}
  serializedVersion: 6
  m_Component:
  - component: {fileID: 2215365556999525727}
  - component: {fileID: 93909025220102145}
  - component: {fileID: 2548819119110516005}
  - component: {fileID: 7197208225887694914}
  m_Layer: 0
  m_Name: Box
  m_TagString: Untagged
  m_Icon: {fileID: 0}
  m_NavMeshLayer: 0
  m_StaticEditorFlags: 0
  m_IsActive: 1
--- !u!4 &2215365556999525727
Transform:
  m_ObjectHideFlags: 0
  m_CorrespondingSourceObject: {fileID: 0}
  m_PrefabInstance: {fileID: 0}
  m_PrefabAsset: {fileID: 0}
  m_GameObject: {fileID: 1594552866964663972}
  serializedVersion: 2
  m_LocalRotation: {x: 0, y: 0, z: 0, w: 1}
  m_LocalPosition: {x: 0, y: 0, z: 0}
  m_LocalScale: {x: 0.3, y: 0.3, z: 1}
  m_ConstrainProportionsScale: 0
  m_Children: []
  m_Father: {fileID: 0}
  m_LocalEulerAnglesHint: {x: 0, y: 0, z: 0}
--- !u!212 &93909025220102145
SpriteRenderer:
  m_ObjectHideFlags: 0
  m_CorrespondingSourceObject: {fileID: 0}
  m_PrefabInstance: {fileID: 0}
  m_PrefabAsset: {fileID: 0}
  m_GameObject: {fileID: 1594552866964663972}
  m_Enabled: 1
  m_CastShadows: 0
  m_ReceiveShadows: 0
  m_DynamicOccludee: 1
  m_StaticShadowCaster: 0
  m_MotionVectors: 1
  m_LightProbeUsage: 1
  m_ReflectionProbeUsage: 1
  m_RayTracingMode: 0
  m_RayTraceProcedural: 0
  m_RenderingLayerMask: 1
  m_RendererPriority: 0
  m_Materials:
  - {fileID: 10754, guid: 0000000000000000f000000000000000, type: 0}
  m_StaticBatchInfo:
    firstSubMesh: 0
    subMeshCount: 0
  m_StaticBatchRoot: {fileID: 0}
  m_ProbeAnchor: {fileID: 0}
  m_LightProbeVolumeOverride: {fileID: 0}
  m_ScaleInLightmap: 1
  m_ReceiveGI: 1
  m_PreserveUVs: 0
  m_IgnoreNormalsForChartDetection: 0
  m_ImportantGI: 0
  m_StitchLightmapSeams: 1
  m_SelectedEditorRenderState: 0
  m_MinimumChartSize: 4
  m_AutoUVMaxDistance: 0.5
  m_AutoUVMaxAngle: 89
  m_LightmapParameters: {fileID: 0}
  m_SortingLayerID: 0
  m_SortingLayer: 0
  m_SortingOrder: 1
  m_Sprite: {fileID: 21300000, guid: d8aaa061202b92849aa0ffb60eb1bc8f, type: 3}
  m_Color: {r: 1, g: 1, b: 1, a: 1}
  m_FlipX: 0
  m_FlipY: 0
  m_DrawMode: 0
  m_Size: {x: 1, y: 1}
  m_AdaptiveModeThreshold: 0.5
  m_SpriteTileMode: 0
  m_WasSpriteAssigned: 1
  m_MaskInteraction: 0
  m_SpriteSortPoint: 0
--- !u!60 &2548819119110516005
PolygonCollider2D:
  m_ObjectHideFlags: 0
  m_CorrespondingSourceObject: {fileID: 0}
  m_PrefabInstance: {fileID: 0}
  m_PrefabAsset: {fileID: 0}
  m_GameObject: {fileID: 1594552866964663972}
  m_Enabled: 1
  m_Density: 1
  m_Material: {fileID: 0}
  m_IncludeLayers:
    serializedVersion: 2
    m_Bits: 0
  m_ExcludeLayers:
    serializedVersion: 2
    m_Bits: 0
  m_LayerOverridePriority: 0
  m_ForceSendLayers:
    serializedVersion: 2
    m_Bits: 4294967295
  m_ForceReceiveLayers:
    serializedVersion: 2
    m_Bits: 4294967295
  m_ContactCaptureLayers:
    serializedVersion: 2
    m_Bits: 4294967295
  m_CallbackLayers:
    serializedVersion: 2
    m_Bits: 4294967295
  m_IsTrigger: 0
  m_UsedByEffector: 0
  m_UsedByComposite: 0
  m_Offset: {x: 0, y: 0}
  m_SpriteTilingProperty:
    border: {x: 0, y: 0, z: 0, w: 0}
    pivot: {x: 0.5, y: 0.5}
    oldSize: {x: 3.62, y: 4.16}
    newSize: {x: 1, y: 1}
    adaptiveTilingThreshold: 0.5
    drawMode: 0
    adaptiveTiling: 0
  m_AutoTiling: 0
  m_Points:
    m_Paths:
    - - {x: 0.38, y: -1.89}
      - {x: 0.52, y: -1.81}
      - {x: 0.57, y: -1.78}
      - {x: 0.71, y: -1.6999999}
      - {x: 0.9, y: -1.5899999}
      - {x: 1.02, y: -1.52}
      - {x: 1.0699999, y: -1.49}
      - {x: 1.2099999, y: -1.41}
      - {x: 1.78, y: -1.0799999}
      - {x: 1.81, y: -1.05}
      - {x: 1.81, y: 1.06}
      - {x: 1.5899999, y: 1.1899999}
      - {x: 1.24, y: 1.39}
      - {x: 1.12, y: 1.4599999}
      - {x: 0.78999996, y: 1.65}
      - {x: 0.53, y: 1.8}
      - {x: 0.25, y: 1.9599999}
      - {x: 0.06, y: 2.07}
      - {x: 0.03, y: 2.08}
      - {x: -0.049999997, y: 2.08}
      - {x: -0.13, y: 2.04}
      - {x: -0.25, y: 1.9699999}
      - {x: -0.39, y: 1.89}
      - {x: -0.51, y: 1.8199999}
      - {x: -0.7, y: 1.7099999}
      - {x: -0.75, y: 1.68}
      - {x: -0.89, y: 1.5999999}
      - {x: -1.1999999, y: 1.42}
      - {x: -1.3199999, y: 1.35}
      - {x: -1.5799999, y: 1.1999999}
      - {x: -1.6999999, y: 1.13}
      - {x: -1.81, y: 1.06}
      - {x: -1.81, y: -1.06}
      - {x: -1.6999999, y: -1.13}
      - {x: -1.11, y: -1.4699999}
      - {x: -0.78, y: -1.66}
      - {x: -0.64, y: -1.74}
      - {x: -0.52, y: -1.81}
      - {x: -0.04, y: -2.08}
      - {x: 0.049999997, y: -2.08}
      - {x: 0.14, y: -2.03}
      - {x: 0.19, y: -2}
      - {x: 0.32999998, y: -1.92}
  m_UseDelaunayMesh: 0
--- !u!114 &7197208225887694914
MonoBehaviour:
  m_ObjectHideFlags: 0
  m_CorrespondingSourceObject: {fileID: 0}
  m_PrefabInstance: {fileID: 0}
  m_PrefabAsset: {fileID: 0}
  m_GameObject: {fileID: 1594552866964663972}
  m_Enabled: 1
  m_EditorHideFlags: 0
  m_Script: {fileID: 11500000, guid: 507ba13c4d3c6c5449f14ce650f94880, type: 3}
  m_Name: 
  m_EditorClassIdentifier: 
